%YAML 1.1
%TAG !u! tag:unity3d.com,2011:
--- !u!1045 &1
EditorBuildSettings:
  m_ObjectHideFlags: 0
  serializedVersion: 2
  m_Scenes:
  - enabled: 1
    path: Assets/MainMenu/MainMenu.unity
    guid: 2810fb5697bc0bd48b3aba09d2e1bc7c
  - enabled: 1
    path: Assets/Scenes/level01.unity
    guid: f5b3ae5406584f04bbfc993225fc2712
  - enabled: 1
    path: Assets/BetweenLevels/Victory.unity
    guid: 4b874d724cffc754fbc4f445e49c4221
  - enabled: 1
    path: Assets/Scenes/level02.unity
    guid: 443393ed634c78e4f909b771b2bac21d
  - enabled: 1
    path: Assets/BetweenLevels/Victory2.unity
    guid: 7c4b7e548bc89354abc4796c2c9c4e28
  - enabled: 1
    path: Assets/Scenes/level03.unity
    guid: 99e02e69d795e0b4fb52e37dfce9b0ca
  - enabled: 1
    path: Assets/BetweenLevels/Victory3.unity
    guid: 70117db9f1c7f1b47a3edfb8adb12298
  - enabled: 1
    path: Assets/BetweenLevels/GameOver.unity
    guid: 955513470a105d340a0befd43d26c543
